…
for (size in c(200, 400, 600, 800, 1000, 1500, 2000, 4000, 4703)) {

lapply(0:15/15, get_values, size = size, raw=raw) %>% 
  do.call(rbind, .) %>% 
  replace_na(list(spec = 1, rec = 1)) %>% 
  rbind(filter(., thrshld == 0) %>% mutate(prec = 0, spec = 0, rec = 1),  # extrapolate Plotlines 
        filter(., thrshld == 0) %>% mutate(prec = 1, spec = 1, rec = 0)) %>%
  loop_auc(size, out_file="auc.csv")
}


read_csv("auc.csv") 
```

    ## # A tibble: 324 x 5
    ##    train_size Model                       Finding               AUPRC   AUC
    ##         <dbl> <chr>                       <chr>                 <dbl> <dbl>
    ##  1        200 pt-radiobert-base-german-c… Congestion             0.47  0.86
    ##  2        200 pt-radiobert-base-german-c… Opacity                0.7   0.81
    ##  3        200 pt-radiobert-base-german-c… Effusion               0.78  0.88
    ##  4        200 pt-radiobert-base-german-c… Pneumothorax           0.4   0.95
    ##  5        200 pt-radiobert-base-german-c… Thoracic drain         0.73  0.93
    ##  6        200 pt-radiobert-base-german-c… Venous Catheter        0.96  0.96
    ##  7        200 pt-radiobert-base-german-c… Gastric Tube           0.93  0.98
    ##  8        200 pt-radiobert-base-german-c… Tracheal Tube/Canula   0.91  0.96
    ##  9        200 pt-radiobert-base-german-c… Misplaced Medical De…  0.04  0.95
    ## 10        200 bert-base-german-cased      Congestion             0.48  0.86
    ## # … with 314 more rows
…
``` r
writeLines("train_size,Model,Finding,AUPRC,AUC", "auc-for-ct.csv")

lapply(0:15/15, get_values, size = 4000, raw=raw) %>% 
  do.call(rbind, .) %>% 
  replace_na(list(spec = 1, rec = 1)) %>% 
  rbind(filter(., thrshld == 0) %>% mutate(prec = 0, spec = 0, rec = 1),  # extrapolate Plotlines 
        filter(., thrshld == 0) %>% mutate(prec = 1, spec = 1, rec = 0)) %>%
  loop_auc(size,out_file = "auc-for-ct.csv")

read_csv("auc-for-ct.csv")
```

    ## # A tibble: 36 x 5
    ##    train_size Model   Finding                  AUPRC   AUC
    ##         <dbl> <chr>   <chr>                    <dbl> <dbl>
    ##  1       4703 radbert Congestion                0.77  0.9 
    ##  2       4703 radbert Opacity                   0.96  0.81
    ##  3       4703 radbert Effusion                  0.93  0.9 
    ##  4       4703 radbert Pneumothorax              0.75  0.93
    ##  5       4703 radbert Thoracic drain            0.88  0.93
    ##  6       4703 radbert Venous Catheter           0.86  0.89
    ##  7       4703 radbert Gastric Tube              0.71  0.84
    ##  8       4703 radbert Tracheal Tube/Canula      0.9   0.91
    ##  9       4703 radbert Misplaced Medical Device  0.4   0.77
    ## 10       4703 fsbert  Congestion                0.47  0.81
    ## # … with 26 more rows
